{
	"all": {
		"changeLogs": {
			"BDFDB": "3.2.8"
		},
		"choices": {
			"toastPosition": "right"
		},
		"general": {
			"shareData": true,
			"showToasts": true,
			"showSupportBadges": false,
			"useChromium": false
		},
		"hashes": {
			"0BDFDB.data.json": "4fa62c6b427dac9470121312280d636ab822a22c",
			"0BDFDB.raw.css": "669b57713c736057d0465f4f6258d01a964161e8"
		}
	}
}